…
``` r
df = ww_process_sensorlog(df, check_data = FALSE, apply_tz = FALSE)
df
#> # A tibble: 11,578 × 18
#>    time                index timestamp             lat   lon altitude speed
#>    <dttm>              <dbl> <dttm>              <dbl> <dbl>    <dbl> <dbl>
#>  1 2025-03-11 14:44:11     1 2025-03-11 18:44:07  39.3 -76.6     46.3    -1
#>  2 2025-03-11 14:44:11     2 2025-03-11 18:44:07  39.3 -76.6     46.3    -1
#>  3 2025-03-11 14:44:11     3 2025-03-11 18:44:07  39.3 -76.6     46.3    -1
#>  4 2025-03-11 14:44:12     4 2025-03-11 18:44:07  39.3 -76.6     46.3    -1
#>  5 2025-03-11 14:44:12     5 2025-03-11 18:44:07  39.3 -76.6     46.3    -1
#>  6 2025-03-11 14:44:12     6 2025-03-11 18:44:07  39.3 -76.6     46.3    -1
#>  7 2025-03-11 14:44:12     7 2025-03-11 18:44:07  39.3 -76.6     46.3    -1
#>  8 2025-03-11 14:44:12     8 2025-03-11 18:44:07  39.3 -76.6     46.3    -1
#>  9 2025-03-11 14:44:12     9 2025-03-11 18:44:07  39.3 -76.6     46.3    -1
#> 10 2025-03-11 14:44:12    10 2025-03-11 18:44:07  39.3 -76.6     46.3    -1
#> # ℹ 11,568 more rows
#> # ℹ 11 more variables: speed_accuracy <dbl>, accel_X <dbl>, accel_Y <dbl>,
#> #   accel_Z <dbl>, lat_zero <lgl>, lon_zero <lgl>, distance <dbl>,
#> #   is_within_home <lgl>, distance_traveled <dbl>, timezone_estimated <chr>,
#> #   char_time <chr>
```
…
