Analysis of SensorLog Data • waterways
…
Thus, we do not want to ensure no duplicated times, so we will set
check_data to be FALSE:

df = ww_process_sensorlog(df, check_data = FALSE)
df
#> # A tibble: 11,578 × 15
#>    time                index timestamp             lat   lon altitude speed
#>    <dttm>              <dbl> <dttm>              <dbl> <dbl>    <dbl> <dbl>
#>  1 2025-03-11 18:44:11     1 2025-03-11 18:44:07  39.3 -76.6     46.3    -1
#>  2 2025-03-11 18:44:11     2 2025-03-11 18:44:07  39.3 -76.6     46.3    -1
#>  3 2025-03-11 18:44:11     3 2025-03-11 18:44:07  39.3 -76.6     46.3    -1
#>  4 2025-03-11 18:44:12     4 2025-03-11 18:44:07  39.3 -76.6     46.3    -1
#>  5 2025-03-11 18:44:12     5 2025-03-11 18:44:07  39.3 -76.6     46.3    -1
#>  6 2025-03-11 18:44:12     6 2025-03-11 18:44:07  39.3 -76.6     46.3    -1
#>  7 2025-03-11 18:44:12     7 2025-03-11 18:44:07  39.3 -76.6     46.3    -1
#>  8 2025-03-11 18:44:12     8 2025-03-11 18:44:07  39.3 -76.6     46.3    -1
#>  9 2025-03-11 18:44:12     9 2025-03-11 18:44:07  39.3 -76.6     46.3    -1
#> 10 2025-03-11 18:44:12    10 2025-03-11 18:44:07  39.3 -76.6     46.3    -1
#> # ℹ 11,568 more rows
#> # ℹ 8 more variables: speed_accuracy <dbl>, accel_X <dbl>, accel_Y <dbl>,
#> #   accel_Z <dbl>, lat_zero <lgl>, lon_zero <lgl>, timezone_estimated <chr>,
#> #   char_time <chr>
…
We can then calculate the distance from this fixed point using the
ww_calculate_distance function:

df = ww_calculate_distance(df,
                           lat = lat,
                           lon = lon)

This function uses the geosphere::distm function to
calculate the distance in meters from the fixed point. We can see the
new columns that were added to the data.

df %>% 
  select(time, char_time, lat_zero, lon_zero, distance)
#> # A tibble: 11,578 × 5
#>    time                char_time                     lat_zero lon_zero distance
#>    <dttm>              <chr>                         <lgl>    <lgl>       <dbl>
#>  1 2025-03-11 18:44:11 2025-03-11T14:44:11.899-04:00 FALSE    FALSE        73.4
#>  2 2025-03-11 18:44:11 2025-03-11T14:44:11.938-04:00 FALSE    FALSE        73.4
#>  3 2025-03-11 18:44:11 2025-03-11T14:44:11.998-04:00 FALSE    FALSE        73.4
#>  4 2025-03-11 18:44:12 2025-03-11T14:44:12.058-04:00 FALSE    FALSE        73.4
#>  5 2025-03-11 18:44:12 2025-03-11T14:44:12.117-04:00 FALSE    FALSE        73.4
#>  6 2025-03-11 18:44:12 2025-03-11T14:44:12.177-04:00 FALSE    FALSE        73.4
#>  7 2025-03-11 18:44:12 2025-03-11T14:44:12.236-04:00 FALSE    FALSE        73.4
#>  8 2025-03-11 18:44:12 2025-03-11T14:44:12.296-04:00 FALSE    FALSE        73.4
#>  9 2025-03-11 18:44:12 2025-03-11T14:44:12.356-04:00 FALSE    FALSE        73.4
#> 10 2025-03-11 18:44:12 2025-03-11T14:44:12.415-04:00 FALSE    FALSE        73.4
#> # ℹ 11,568 more rows
…
