…
Thus, we do not want to ensure no duplicated times, so we will set
`check_data` to be `FALSE`:

``` r
df_proc = ww_process_sensorlog(df, check_data = FALSE, apply_tz = TRUE)
df_proc
#> # A tibble: 11,578 × 18
#>    time                index timestamp             lat   lon altitude speed
#>    <dttm>              <dbl> <dttm>              <dbl> <dbl>    <dbl> <dbl>
#>  1 2025-03-11 18:44:11     1 2025-03-11 18:44:07  39.3 -76.6     46.3    -1
#>  2 2025-03-11 18:44:11     2 2025-03-11 18:44:07  39.3 -76.6     46.3    -1
#>  3 2025-03-11 18:44:11     3 2025-03-11 18:44:07  39.3 -76.6     46.3    -1
#>  4 2025-03-11 18:44:12     4 2025-03-11 18:44:07  39.3 -76.6     46.3    -1
#>  5 2025-03-11 18:44:12     5 2025-03-11 18:44:07  39.3 -76.6     46.3    -1
#>  6 2025-03-11 18:44:12     6 2025-03-11 18:44:07  39.3 -76.6     46.3    -1
#>  7 2025-03-11 18:44:12     7 2025-03-11 18:44:07  39.3 -76.6     46.3    -1
#>  8 2025-03-11 18:44:12     8 2025-03-11 18:44:07  39.3 -76.6     46.3    -1
#>  9 2025-03-11 18:44:12     9 2025-03-11 18:44:07  39.3 -76.6     46.3    -1
#> 10 2025-03-11 18:44:12    10 2025-03-11 18:44:07  39.3 -76.6     46.3    -1
#> # ℹ 11,568 more rows
#> # ℹ 11 more variables: speed_accuracy <dbl>, accel_X <dbl>, accel_Y <dbl>,
#> #   accel_Z <dbl>, lat_zero <lgl>, lon_zero <lgl>, distance <dbl>,
#> #   is_within_home <lgl>, distance_traveled <dbl>, timezone_estimated <chr>,
#> #   char_time <chr>
```

Note, the argument `apply_tz` will apply the time zone of the data. This
is helpful as it will set the correct time zone of the data in absolute
terms. Unfortunately, this makes it so researchers have to make sure
they time shift things like hours. For example, if you want to find what
data is between 10AM and 6PM in EST time zone, you need to shift those
to GMT/UTC. Also, this will cause issues as it shifts data into
different dates. The data is likely/sleep rest, but this can skew
numbers. For analysis, we will not apply the timezone:

``` r
df = ww_process_sensorlog(df, check_data = FALSE, apply_tz = FALSE)
df
#> # A tibble: 11,578 × 18
#>    time                index timestamp             lat   lon altitude speed
#>    <dttm>              <dbl> <dttm>              <dbl> <dbl>    <dbl> <dbl>
#>  1 2025-03-11 14:44:11     1 2025-03-11 18:44:07  39.3 -76.6     46.3    -1
#>  2 2025-03-11 14:44:11     2 2025-03-11 18:44:07  39.3 -76.6     46.3    -1
#>  3 2025-03-11 14:44:11     3 2025-03-11 18:44:07  39.3 -76.6     46.3    -1
#>  4 2025-03-11 14:44:12     4 2025-03-11 18:44:07  39.3 -76.6     46.3    -1
#>  5 2025-03-11 14:44:12     5 2025-03-11 18:44:07  39.3 -76.6     46.3    -1
#>  6 2025-03-11 14:44:12     6 2025-03-11 18:44:07  39.3 -76.6     46.3    -1
#>  7 2025-03-11 14:44:12     7 2025-03-11 18:44:07  39.3 -76.6     46.3    -1
#>  8 2025-03-11 14:44:12     8 2025-03-11 18:44:07  39.3 -76.6     46.3    -1
#>  9 2025-03-11 14:44:12     9 2025-03-11 18:44:07  39.3 -76.6     46.3    -1
#> 10 2025-03-11 14:44:12    10 2025-03-11 18:44:07  39.3 -76.6     46.3    -1
#> # ℹ 11,568 more rows
#> # ℹ 11 more variables: speed_accuracy <dbl>, accel_X <dbl>, accel_Y <dbl>,
#> #   accel_Z <dbl>, lat_zero <lgl>, lon_zero <lgl>, distance <dbl>,
#> #   is_within_home <lgl>, distance_traveled <dbl>, timezone_estimated <chr>,
#> #   char_time <chr>
```
…
``` r
df = ww_calculate_distance(df,
                           lat = lat,
                           lon = lon)
```

This function uses the
[`geosphere::distm`](https://rdrr.io/pkg/geosphere/man/distm.html)
function to calculate the distance in meters from the fixed point. We
can see the new columns that were added to the data.

``` r
df %>% 
  select(time, char_time, lat_zero, lon_zero, distance)
#> # A tibble: 11,578 × 5
#>    time                char_time                     lat_zero lon_zero distance
#>    <dttm>              <chr>                         <lgl>    <lgl>       <dbl>
#>  1 2025-03-11 14:44:11 2025-03-11T14:44:11.899-04:00 FALSE    FALSE        73.4
#>  2 2025-03-11 14:44:11 2025-03-11T14:44:11.938-04:00 FALSE    FALSE        73.4
#>  3 2025-03-11 14:44:11 2025-03-11T14:44:11.998-04:00 FALSE    FALSE        73.4
#>  4 2025-03-11 14:44:12 2025-03-11T14:44:12.058-04:00 FALSE    FALSE        73.4
#>  5 2025-03-11 14:44:12 2025-03-11T14:44:12.117-04:00 FALSE    FALSE        73.4
#>  6 2025-03-11 14:44:12 2025-03-11T14:44:12.177-04:00 FALSE    FALSE        73.4
#>  7 2025-03-11 14:44:12 2025-03-11T14:44:12.236-04:00 FALSE    FALSE        73.4
#>  8 2025-03-11 14:44:12 2025-03-11T14:44:12.296-04:00 FALSE    FALSE        73.4
#>  9 2025-03-11 14:44:12 2025-03-11T14:44:12.356-04:00 FALSE    FALSE        73.4
#> 10 2025-03-11 14:44:12 2025-03-11T14:44:12.415-04:00 FALSE    FALSE        73.4
#> # ℹ 11,568 more rows
```
…
